^C:\USERS\TANYA\DOWNLOADS\AISTRD3-MASTER\AISTRD3-MASTER\LAB3\LAB3\FUNCTIONS.CPP
/c /ZI /JMC /nologo /W3 /WX- /diagnostics:classic /sdl /Od /Oy- /D _MBCS /Gm- /EHsc /RTC1 /MDd /GS /fp:precise /permissive- /Zc:wchar_t /Zc:forScope /Zc:inline /Fo"DEBUG\\" /Fd"DEBUG\VC141.PDB" /Gd /TP /analyze- /FC C:\USERS\TANYA\DOWNLOADS\AISTRD3-MASTER\AISTRD3-MASTER\LAB3\LAB3\FUNCTIONS.CPP
^C:\USERS\TANYA\DOWNLOADS\AISTRD3-MASTER\AISTRD3-MASTER\LAB3\LAB3\LAB3.CPP
/c /ZI /JMC /nologo /W3 /WX- /diagnostics:classic /sdl /Od /Oy- /D _MBCS /Gm- /EHsc /RTC1 /MDd /GS /fp:precise /permissive- /Zc:wchar_t /Zc:forScope /Zc:inline /Fo"DEBUG\\" /Fd"DEBUG\VC141.PDB" /Gd /TP /analyze- /FC C:\USERS\TANYA\DOWNLOADS\AISTRD3-MASTER\AISTRD3-MASTER\LAB3\LAB3\LAB3.CPP
^C:\USERS\TANYA\DOWNLOADS\AISTRD3-MASTER\AISTRD3-MASTER\LAB3\LAB3\PCH.CPP
/c /ZI /JMC /nologo /W3 /WX- /diagnostics:classic /sdl /Od /Oy- /D _MBCS /Gm- /EHsc /RTC1 /MDd /GS /fp:precise /permissive- /Zc:wchar_t /Zc:forScope /Zc:inline /Fo"DEBUG\\" /Fd"DEBUG\VC141.PDB" /Gd /TP /analyze- /FC C:\USERS\TANYA\DOWNLOADS\AISTRD3-MASTER\AISTRD3-MASTER\LAB3\LAB3\PCH.CPP
^C:\USERS\TANYA\DOWNLOADS\AISTRD3-MASTER\AISTRD3-MASTER\LAB3\LAB3\QUEUE.CPP
/c /ZI /JMC /nologo /W3 /WX- /diagnostics:classic /sdl /Od /Oy- /D _MBCS /Gm- /EHsc /RTC1 /MDd /GS /fp:precise /permissive- /Zc:wchar_t /Zc:forScope /Zc:inline /Fo"DEBUG\\" /Fd"DEBUG\VC141.PDB" /Gd /TP /analyze- /FC C:\USERS\TANYA\DOWNLOADS\AISTRD3-MASTER\AISTRD3-MASTER\LAB3\LAB3\QUEUE.CPP
