^C:\USERS\TANYA\DESKTOP\ЛАБОРАТОРНЫЕ\АЛГОРИТМЫ\ЛАБА 3\LAB 3\LAB 3\DEBUG\FUNCTIONS.OBJ|C:\USERS\TANYA\DESKTOP\ЛАБОРАТОРНЫЕ\АЛГОРИТМЫ\ЛАБА 3\LAB 3\LAB 3\DEBUG\LAB3.OBJ|C:\USERS\TANYA\DESKTOP\ЛАБОРАТОРНЫЕ\АЛГОРИТМЫ\ЛАБА 3\LAB 3\LAB 3\DEBUG\PCH.OBJ|C:\USERS\TANYA\DESKTOP\ЛАБОРАТОРНЫЕ\АЛГОРИТМЫ\ЛАБА 3\LAB 3\LAB 3\DEBUG\QUEUE.OBJ
C:\USERS\TANYA\DESKTOP\Лабораторные\Алгоритмы\лаба 3\LAB 3\DEBUG\LAB 3.EXE
C:\USERS\TANYA\DESKTOP\Лабораторные\Алгоритмы\лаба 3\LAB 3\DEBUG\LAB 3.ILK
C:\USERS\TANYA\DESKTOP\ЛАБОРАТОРНЫЕ\АЛГОРИТМЫ\ЛАБА 3\LAB 3\DEBUG\LAB 3.PDB
