^C:\Users\tanya\Desktop\Лабораторные\Алгоритмы\лаба 3\UnitTest1\UnitTest1.vcxproj
C:\Users\tanya\Desktop\Лабораторные\Алгоритмы\лаба 3\lab 3\Debug\UnitTest1.lib
C:\Users\tanya\Desktop\Лабораторные\Алгоритмы\лаба 3\lab 3\Debug\UnitTest1.exp
